
Detector #1      ACQ 21-Apr-2021 at  8:44:16   RT = 300.0   LT = 300.0
            MCB 130
            UN crystals

ROI # 1     RANGE: 5425 = 5425.00     to  5501 = 5501.00
            AREA : Gross =  35    Net = -16   +/- 24
            CENTROID: 5494.00
            SHAPE: FWHM = 1.00     FW(1/10)M = 1.80

ROI # 2     RANGE: 5530 = 5530.00     to  5561 = 5561.00
            AREA : Gross =  211    Net = 62   +/- 26
            CENTROID: 5542.58
            SHAPE: FWHM = 8.37     FW(1/10)M = 9.65

ROI # 3     RANGE: 5571 = 5571.00     to  5662 = 5662.00
            AREA : Gross =  1487    Net = 1272   +/- 65
            CENTROID: 5593.90
            SHAPE: FWHM = 18.92     FW(1/10)M = 32.01